{
  "build": "py_0",
  "build_number": 0,
  "channel": "https://conda.anaconda.org/anaconda/noarch",
  "constrains": [],
  "depends": [
    "python >=3.5"
  ],
  "extracted_package_dir": "C:\\Users\\hp\\anaconda3\\pkgs\\asgiref-3.3.0-py_0",
  "features": "",
  "files": [
    "Lib/site-packages/asgiref-3.3.0.dist-info/INSTALLER",
    "Lib/site-packages/asgiref-3.3.0.dist-info/LICENSE",
    "Lib/site-packages/asgiref-3.3.0.dist-info/METADATA",
    "Lib/site-packages/asgiref-3.3.0.dist-info/RECORD",
    "Lib/site-packages/asgiref-3.3.0.dist-info/REQUESTED",
    "Lib/site-packages/asgiref-3.3.0.dist-info/WHEEL",
    "Lib/site-packages/asgiref-3.3.0.dist-info/direct_url.json",
    "Lib/site-packages/asgiref-3.3.0.dist-info/top_level.txt",
    "Lib/site-packages/asgiref/__init__.py",
    "Lib/site-packages/asgiref/compatibility.py",
    "Lib/site-packages/asgiref/current_thread_executor.py",
    "Lib/site-packages/asgiref/local.py",
    "Lib/site-packages/asgiref/server.py",
    "Lib/site-packages/asgiref/sync.py",
    "Lib/site-packages/asgiref/testing.py",
    "Lib/site-packages/asgiref/timeout.py",
    "Lib/site-packages/asgiref/wsgi.py",
    ".nonadmin",
    "Lib/site-packages/asgiref/__pycache__/__init__.cpython-39.pyc",
    "Lib/site-packages/asgiref/__pycache__/compatibility.cpython-39.pyc",
    "Lib/site-packages/asgiref/__pycache__/current_thread_executor.cpython-39.pyc",
    "Lib/site-packages/asgiref/__pycache__/local.cpython-39.pyc",
    "Lib/site-packages/asgiref/__pycache__/server.cpython-39.pyc",
    "Lib/site-packages/asgiref/__pycache__/sync.cpython-39.pyc",
    "Lib/site-packages/asgiref/__pycache__/testing.cpython-39.pyc",
    "Lib/site-packages/asgiref/__pycache__/timeout.cpython-39.pyc",
    "Lib/site-packages/asgiref/__pycache__/wsgi.cpython-39.pyc"
  ],
  "fn": "asgiref-3.3.0-py_0.tar.bz2",
  "license": "BSD-3-Clause",
  "license_family": "BSD",
  "link": {
    "source": "C:\\Users\\hp\\anaconda3\\pkgs\\asgiref-3.3.0-py_0",
    "type": 1
  },
  "md5": "a1c32ee87caf0302a1d4bbd2e3d72dcd",
  "name": "asgiref",
  "noarch": "python",
  "package_tarball_full_path": "C:\\Users\\hp\\anaconda3\\pkgs\\asgiref-3.3.0-py_0.tar.bz2",
  "package_type": "noarch_python",
  "paths_data": {
    "paths": [
      {
        "_path": "site-packages/asgiref-3.3.0.dist-info/INSTALLER",
        "path_type": "hardlink",
        "sha256": "d0edee15f91b406f3f99726e44eb990be6e34fd0345b52b910c568e0eef6a2a8",
        "sha256_in_prefix": "d0edee15f91b406f3f99726e44eb990be6e34fd0345b52b910c568e0eef6a2a8",
        "size_in_bytes": 5
      },
      {
        "_path": "site-packages/asgiref-3.3.0.dist-info/LICENSE",
        "path_type": "hardlink",
        "sha256": "b846415d1b514e9c1dff14a22deb906d794bc546ca6129f950a18cd091e2a669",
        "sha256_in_prefix": "b846415d1b514e9c1dff14a22deb906d794bc546ca6129f950a18cd091e2a669",
        "size_in_bytes": 1552
      },
      {
        "_path": "site-packages/asgiref-3.3.0.dist-info/METADATA",
        "path_type": "hardlink",
        "sha256": "70f98f4eb9f6068b192b5464fcdf69e29a8ff09962bfce84bbb052baeee44f33",
        "sha256_in_prefix": "70f98f4eb9f6068b192b5464fcdf69e29a8ff09962bfce84bbb052baeee44f33",
        "size_in_bytes": 8800
      },
      {
        "_path": "site-packages/asgiref-3.3.0.dist-info/RECORD",
        "path_type": "hardlink",
        "sha256": "57718fb77fd494ba9e09f037cf505dfab902025a8487881d9e77d1f252a59e62",
        "sha256_in_prefix": "57718fb77fd494ba9e09f037cf505dfab902025a8487881d9e77d1f252a59e62",
        "size_in_bytes": 1786
      },
      {
        "_path": "site-packages/asgiref-3.3.0.dist-info/REQUESTED",
        "path_type": "hardlink",
        "sha256": "e3b0c44298fc1c149afbf4c8996fb92427ae41e4649b934ca495991b7852b855",
        "sha256_in_prefix": "e3b0c44298fc1c149afbf4c8996fb92427ae41e4649b934ca495991b7852b855",
        "size_in_bytes": 0
      },
      {
        "_path": "site-packages/asgiref-3.3.0.dist-info/WHEEL",
        "path_type": "hardlink",
        "sha256": "11546323af45e6a5639bf620a9c4d73e74c0bf705f494af4595007b923f75e8a",
        "sha256_in_prefix": "11546323af45e6a5639bf620a9c4d73e74c0bf705f494af4595007b923f75e8a",
        "size_in_bytes": 92
      },
      {
        "_path": "site-packages/asgiref-3.3.0.dist-info/direct_url.json",
        "path_type": "hardlink",
        "sha256": "643070e2085c42edf302b5958a01bef176d33c7afa40bef50a70992ac168b344",
        "sha256_in_prefix": "643070e2085c42edf302b5958a01bef176d33c7afa40bef50a70992ac168b344",
        "size_in_bytes": 80
      },
      {
        "_path": "site-packages/asgiref-3.3.0.dist-info/top_level.txt",
        "path_type": "hardlink",
        "sha256": "6e89108c2cf0c0446174188f76f60465ae1c1f14f83427807df40d52a27cb2c8",
        "sha256_in_prefix": "6e89108c2cf0c0446174188f76f60465ae1c1f14f83427807df40d52a27cb2c8",
        "size_in_bytes": 8
      },
      {
        "_path": "site-packages/asgiref/__init__.py",
        "path_type": "hardlink",
        "sha256": "30f49b9094bff904a42caeec32515715fe625a56dc48bd7c0e3d9988c0ad4bd7",
        "sha256_in_prefix": "30f49b9094bff904a42caeec32515715fe625a56dc48bd7c0e3d9988c0ad4bd7",
        "size_in_bytes": 22
      },
      {
        "_path": "site-packages/asgiref/compatibility.py",
        "path_type": "hardlink",
        "sha256": "3151f66c476208c3154cb6c4fb557a2a253bab82f0ab33fb3c8b9f7976be9e33",
        "sha256_in_prefix": "3151f66c476208c3154cb6c4fb557a2a253bab82f0ab33fb3c8b9f7976be9e33",
        "size_in_bytes": 1598
      },
      {
        "_path": "site-packages/asgiref/current_thread_executor.py",
        "path_type": "hardlink",
        "sha256": "ddd445b778c097fc75c2bf69ad964cbadd3bd6999d1dd2306d39d401855e8e3e",
        "sha256_in_prefix": "ddd445b778c097fc75c2bf69ad964cbadd3bd6999d1dd2306d39d401855e8e3e",
        "size_in_bytes": 2974
      },
      {
        "_path": "site-packages/asgiref/local.py",
        "path_type": "hardlink",
        "sha256": "ee0fcf4a8e6fa9df8a4643bb48e82892d496afce44b6c8b8aea2721755545e1c",
        "sha256_in_prefix": "ee0fcf4a8e6fa9df8a4643bb48e82892d496afce44b6c8b8aea2721755545e1c",
        "size_in_bytes": 4849
      },
      {
        "_path": "site-packages/asgiref/server.py",
        "path_type": "hardlink",
        "sha256": "885267fee0fea687875a02ceb929ca095312d47aaa57e20e4ce382f397caaf4d",
        "sha256_in_prefix": "885267fee0fea687875a02ceb929ca095312d47aaa57e20e4ce382f397caaf4d",
        "size_in_bytes": 5915
      },
      {
        "_path": "site-packages/asgiref/sync.py",
        "path_type": "hardlink",
        "sha256": "fa4651a3b79201a4dc44a4096cd49ec8f427e912ea0ee05c666357b413a8afe7",
        "sha256_in_prefix": "fa4651a3b79201a4dc44a4096cd49ec8f427e912ea0ee05c666357b413a8afe7",
        "size_in_bytes": 14081
      },
      {
        "_path": "site-packages/asgiref/testing.py",
        "path_type": "hardlink",
        "sha256": "ddbc8d455eceb68fc583c67e7c4ad0277c867fb39095c51ec5b37f70342e8334",
        "sha256_in_prefix": "ddbc8d455eceb68fc583c67e7c4ad0277c867fb39095c51ec5b37f70342e8334",
        "size_in_bytes": 3119
      },
      {
        "_path": "site-packages/asgiref/timeout.py",
        "path_type": "hardlink",
        "sha256": "126c3e3a8a75a517d2739612304607804cf5f34da63fa25d03a6f11f7edb6f2f",
        "sha256_in_prefix": "126c3e3a8a75a517d2739612304607804cf5f34da63fa25d03a6f11f7edb6f2f",
        "size_in_bytes": 3914
      },
      {
        "_path": "site-packages/asgiref/wsgi.py",
        "path_type": "hardlink",
        "sha256": "f8bd1ea3fb8afddabb10f8efd66796d41446cad51168ef4d3c44b19c973d0ad0",
        "sha256_in_prefix": "f8bd1ea3fb8afddabb10f8efd66796d41446cad51168ef4d3c44b19c973d0ad0",
        "size_in_bytes": 6575
      },
      {
        "_path": "Lib/site-packages/asgiref/__pycache__/__init__.cpython-39.pyc",
        "path_type": "pyc_file"
      },
      {
        "_path": "Lib/site-packages/asgiref/__pycache__/compatibility.cpython-39.pyc",
        "path_type": "pyc_file"
      },
      {
        "_path": "Lib/site-packages/asgiref/__pycache__/current_thread_executor.cpython-39.pyc",
        "path_type": "pyc_file"
      },
      {
        "_path": "Lib/site-packages/asgiref/__pycache__/local.cpython-39.pyc",
        "path_type": "pyc_file"
      },
      {
        "_path": "Lib/site-packages/asgiref/__pycache__/server.cpython-39.pyc",
        "path_type": "pyc_file"
      },
      {
        "_path": "Lib/site-packages/asgiref/__pycache__/sync.cpython-39.pyc",
        "path_type": "pyc_file"
      },
      {
        "_path": "Lib/site-packages/asgiref/__pycache__/testing.cpython-39.pyc",
        "path_type": "pyc_file"
      },
      {
        "_path": "Lib/site-packages/asgiref/__pycache__/timeout.cpython-39.pyc",
        "path_type": "pyc_file"
      },
      {
        "_path": "Lib/site-packages/asgiref/__pycache__/wsgi.cpython-39.pyc",
        "path_type": "pyc_file"
      }
    ],
    "paths_version": 1
  },
  "requested_spec": "None",
  "sha256": "74d0f4d3fe45ce7ff3f22d645ce367f5411dd321664e90081e8c24d5ce45cfb9",
  "size": 20271,
  "subdir": "noarch",
  "timestamp": 1602513597298,
  "track_features": "",
  "url": "https://conda.anaconda.org/anaconda/noarch/asgiref-3.3.0-py_0.tar.bz2",
  "version": "3.3.0"
}