{
  "build": "py39h0878f49_0",
  "build_number": 0,
  "channel": "https://conda.anaconda.org/conda-forge/win-64",
  "constrains": [],
  "depends": [
    "libpq >=13.3,<14.0a0",
    "openssl >=1.1.1k,<1.1.2a",
    "python >=3.9,<3.10.0a0",
    "python_abi 3.9.* *_cp39",
    "vc >=14.1,<15.0a0",
    "vs2015_runtime >=14.16.27012"
  ],
  "extracted_package_dir": "C:\\Users\\hp\\anaconda3\\pkgs\\psycopg2-2.9.1-py39h0878f49_0",
  "features": "",
  "files": [
    "Lib/site-packages/psycopg2-2.9.1.dist-info/INSTALLER",
    "Lib/site-packages/psycopg2-2.9.1.dist-info/LICENSE",
    "Lib/site-packages/psycopg2-2.9.1.dist-info/METADATA",
    "Lib/site-packages/psycopg2-2.9.1.dist-info/RECORD",
    "Lib/site-packages/psycopg2-2.9.1.dist-info/REQUESTED",
    "Lib/site-packages/psycopg2-2.9.1.dist-info/WHEEL",
    "Lib/site-packages/psycopg2-2.9.1.dist-info/direct_url.json",
    "Lib/site-packages/psycopg2-2.9.1.dist-info/top_level.txt",
    "Lib/site-packages/psycopg2/__init__.py",
    "Lib/site-packages/psycopg2/__pycache__/__init__.cpython-39.pyc",
    "Lib/site-packages/psycopg2/__pycache__/_ipaddress.cpython-39.pyc",
    "Lib/site-packages/psycopg2/__pycache__/_json.cpython-39.pyc",
    "Lib/site-packages/psycopg2/__pycache__/_range.cpython-39.pyc",
    "Lib/site-packages/psycopg2/__pycache__/errorcodes.cpython-39.pyc",
    "Lib/site-packages/psycopg2/__pycache__/errors.cpython-39.pyc",
    "Lib/site-packages/psycopg2/__pycache__/extensions.cpython-39.pyc",
    "Lib/site-packages/psycopg2/__pycache__/extras.cpython-39.pyc",
    "Lib/site-packages/psycopg2/__pycache__/pool.cpython-39.pyc",
    "Lib/site-packages/psycopg2/__pycache__/sql.cpython-39.pyc",
    "Lib/site-packages/psycopg2/__pycache__/tz.cpython-39.pyc",
    "Lib/site-packages/psycopg2/_ipaddress.py",
    "Lib/site-packages/psycopg2/_json.py",
    "Lib/site-packages/psycopg2/_psycopg.cp39-win_amd64.pyd",
    "Lib/site-packages/psycopg2/_range.py",
    "Lib/site-packages/psycopg2/errorcodes.py",
    "Lib/site-packages/psycopg2/errors.py",
    "Lib/site-packages/psycopg2/extensions.py",
    "Lib/site-packages/psycopg2/extras.py",
    "Lib/site-packages/psycopg2/pool.py",
    "Lib/site-packages/psycopg2/sql.py",
    "Lib/site-packages/psycopg2/tz.py",
    ".nonadmin"
  ],
  "fn": "psycopg2-2.9.1-py39h0878f49_0.tar.bz2",
  "license": "LGPL-3.0-or-later",
  "license_family": "LGPL",
  "link": {
    "source": "C:\\Users\\hp\\anaconda3\\pkgs\\psycopg2-2.9.1-py39h0878f49_0",
    "type": 1
  },
  "md5": "8860527229d843dc0bbbed30d54d0668",
  "name": "psycopg2",
  "package_tarball_full_path": "C:\\Users\\hp\\anaconda3\\pkgs\\psycopg2-2.9.1-py39h0878f49_0.tar.bz2",
  "paths_data": {
    "paths": [
      {
        "_path": "Lib/site-packages/psycopg2-2.9.1.dist-info/INSTALLER",
        "path_type": "hardlink",
        "sha256": "d0edee15f91b406f3f99726e44eb990be6e34fd0345b52b910c568e0eef6a2a8",
        "sha256_in_prefix": "d0edee15f91b406f3f99726e44eb990be6e34fd0345b52b910c568e0eef6a2a8",
        "size_in_bytes": 5
      },
      {
        "_path": "Lib/site-packages/psycopg2-2.9.1.dist-info/LICENSE",
        "path_type": "hardlink",
        "sha256": "9614b85dfc9a72c5b2ca33144c1d7e1ed3b1c297459d9fb28a6a5762c2e8d71b",
        "sha256_in_prefix": "9614b85dfc9a72c5b2ca33144c1d7e1ed3b1c297459d9fb28a6a5762c2e8d71b",
        "size_in_bytes": 2238
      },
      {
        "_path": "Lib/site-packages/psycopg2-2.9.1.dist-info/METADATA",
        "path_type": "hardlink",
        "sha256": "55c2dad743d64c9f7d097a01db32e4c18d5166670a1754dc3ab9ce89c7b2ee03",
        "sha256_in_prefix": "55c2dad743d64c9f7d097a01db32e4c18d5166670a1754dc3ab9ce89c7b2ee03",
        "size_in_bytes": 4315
      },
      {
        "_path": "Lib/site-packages/psycopg2-2.9.1.dist-info/RECORD",
        "path_type": "hardlink",
        "sha256": "a3d636d8ca18a53805f8d4651e26e4d0e45bf8d4242f2fb86f43758c0942d2cc",
        "sha256_in_prefix": "a3d636d8ca18a53805f8d4651e26e4d0e45bf8d4242f2fb86f43758c0942d2cc",
        "size_in_bytes": 2120
      },
      {
        "_path": "Lib/site-packages/psycopg2-2.9.1.dist-info/REQUESTED",
        "path_type": "hardlink",
        "sha256": "e3b0c44298fc1c149afbf4c8996fb92427ae41e4649b934ca495991b7852b855",
        "sha256_in_prefix": "e3b0c44298fc1c149afbf4c8996fb92427ae41e4649b934ca495991b7852b855",
        "size_in_bytes": 0
      },
      {
        "_path": "Lib/site-packages/psycopg2-2.9.1.dist-info/WHEEL",
        "path_type": "hardlink",
        "sha256": "8ebeee6d8d0b933ff25c7f457c57bd3d3b4b8463ac7fad9d66436f4d8ac920d1",
        "sha256_in_prefix": "8ebeee6d8d0b933ff25c7f457c57bd3d3b4b8463ac7fad9d66436f4d8ac920d1",
        "size_in_bytes": 100
      },
      {
        "_path": "Lib/site-packages/psycopg2-2.9.1.dist-info/direct_url.json",
        "path_type": "hardlink",
        "sha256": "df4b08636661284812c01302cb567c72508546766794f06b3324768d33eca20c",
        "sha256_in_prefix": "df4b08636661284812c01302cb567c72508546766794f06b3324768d33eca20c",
        "size_in_bytes": 75
      },
      {
        "_path": "Lib/site-packages/psycopg2-2.9.1.dist-info/top_level.txt",
        "path_type": "hardlink",
        "sha256": "edd1c6a4ba90df0faf1a6184567fbbb8af74a94f5fcab19d5968bb4be8137273",
        "sha256_in_prefix": "edd1c6a4ba90df0faf1a6184567fbbb8af74a94f5fcab19d5968bb4be8137273",
        "size_in_bytes": 9
      },
      {
        "_path": "Lib/site-packages/psycopg2/__init__.py",
        "path_type": "hardlink",
        "sha256": "f66a3941dd2e587884071d82768806a2cda436ab6534d1b36ed625182d21592f",
        "sha256_in_prefix": "f66a3941dd2e587884071d82768806a2cda436ab6534d1b36ed625182d21592f",
        "size_in_bytes": 4768
      },
      {
        "_path": "Lib/site-packages/psycopg2/__pycache__/__init__.cpython-39.pyc",
        "path_type": "hardlink",
        "sha256": "2a6a8177e8370ab14013b30cee6f1f4a34ffdfdfbea4fc4b99b666d8da83bc88",
        "sha256_in_prefix": "2a6a8177e8370ab14013b30cee6f1f4a34ffdfdfbea4fc4b99b666d8da83bc88",
        "size_in_bytes": 3262
      },
      {
        "_path": "Lib/site-packages/psycopg2/__pycache__/_ipaddress.cpython-39.pyc",
        "path_type": "hardlink",
        "sha256": "fa0e9c8d35c7af62ac9d5c983f06d5b7680d8038578e1fbd483b8bc5886f0622",
        "sha256_in_prefix": "fa0e9c8d35c7af62ac9d5c983f06d5b7680d8038578e1fbd483b8bc5886f0622",
        "size_in_bytes": 1973
      },
      {
        "_path": "Lib/site-packages/psycopg2/__pycache__/_json.cpython-39.pyc",
        "path_type": "hardlink",
        "sha256": "3a217db065b319497fba742e9d025b599709ea58be6cfab4f33316fc75562432",
        "sha256_in_prefix": "3a217db065b319497fba742e9d025b599709ea58be6cfab4f33316fc75562432",
        "size_in_bytes": 6144
      },
      {
        "_path": "Lib/site-packages/psycopg2/__pycache__/_range.cpython-39.pyc",
        "path_type": "hardlink",
        "sha256": "4e982613fd922819a1d3dc8a2d6d1163435e52d0a6c7e21dfd8a6ff2bdef5e91",
        "sha256_in_prefix": "4e982613fd922819a1d3dc8a2d6d1163435e52d0a6c7e21dfd8a6ff2bdef5e91",
        "size_in_bytes": 14300
      },
      {
        "_path": "Lib/site-packages/psycopg2/__pycache__/errorcodes.cpython-39.pyc",
        "path_type": "hardlink",
        "sha256": "2e5319c0a051ce668e11dcd92351352c71d0d8b89f8127b3756dd707884d1923",
        "sha256_in_prefix": "2e5319c0a051ce668e11dcd92351352c71d0d8b89f8127b3756dd707884d1923",
        "size_in_bytes": 12724
      },
      {
        "_path": "Lib/site-packages/psycopg2/__pycache__/errors.cpython-39.pyc",
        "path_type": "hardlink",
        "sha256": "aa975e7828bf2710d2d1cd96c0f59374c13a0d22bf644c406c8d8694181099a1",
        "sha256_in_prefix": "aa975e7828bf2710d2d1cd96c0f59374c13a0d22bf644c406c8d8694181099a1",
        "size_in_bytes": 459
      },
      {
        "_path": "Lib/site-packages/psycopg2/__pycache__/extensions.cpython-39.pyc",
        "path_type": "hardlink",
        "sha256": "6366d9220c0a279964ad01cd66dcd5471563459bde67341557a3f5327a23aff5",
        "sha256_in_prefix": "6366d9220c0a279964ad01cd66dcd5471563459bde67341557a3f5327a23aff5",
        "size_in_bytes": 6169
      },
      {
        "_path": "Lib/site-packages/psycopg2/__pycache__/extras.cpython-39.pyc",
        "path_type": "hardlink",
        "sha256": "b2d4911dfe605007887f8d3c38fb57e4f092022364cbac342c7c2fa9c515f9d7",
        "sha256_in_prefix": "b2d4911dfe605007887f8d3c38fb57e4f092022364cbac342c7c2fa9c515f9d7",
        "size_in_bytes": 42361
      },
      {
        "_path": "Lib/site-packages/psycopg2/__pycache__/pool.cpython-39.pyc",
        "path_type": "hardlink",
        "sha256": "2bcecf8649d156b1c28dbc9da282941cba116900abe83ebd8604f3c4a665acc1",
        "sha256_in_prefix": "2bcecf8649d156b1c28dbc9da282941cba116900abe83ebd8604f3c4a665acc1",
        "size_in_bytes": 4849
      },
      {
        "_path": "Lib/site-packages/psycopg2/__pycache__/sql.cpython-39.pyc",
        "path_type": "hardlink",
        "sha256": "473e73752973dcec6792cc5662344463fc29d2a989b6a654f4b537611d3b4a57",
        "sha256_in_prefix": "473e73752973dcec6792cc5662344463fc29d2a989b6a654f4b537611d3b4a57",
        "size_in_bytes": 14999
      },
      {
        "_path": "Lib/site-packages/psycopg2/__pycache__/tz.cpython-39.pyc",
        "path_type": "hardlink",
        "sha256": "d9596bfeee5fda32c1fec3a9929c7fa28cc3b757e972d61c6ada0ddaa810d69c",
        "sha256_in_prefix": "d9596bfeee5fda32c1fec3a9929c7fa28cc3b757e972d61c6ada0ddaa810d69c",
        "size_in_bytes": 4478
      },
      {
        "_path": "Lib/site-packages/psycopg2/_ipaddress.py",
        "path_type": "hardlink",
        "sha256": "8e4bb284b82a50644170b3560ccf10272b15eaad4da5cfd1607e3f904ec964f5",
        "sha256_in_prefix": "8e4bb284b82a50644170b3560ccf10272b15eaad4da5cfd1607e3f904ec964f5",
        "size_in_bytes": 2922
      },
      {
        "_path": "Lib/site-packages/psycopg2/_json.py",
        "path_type": "hardlink",
        "sha256": "5cf9f83e7cdb4e0d4372acfb9f524cbf974a841e55155ebcdf8184b7149ac2dd",
        "sha256_in_prefix": "5cf9f83e7cdb4e0d4372acfb9f524cbf974a841e55155ebcdf8184b7149ac2dd",
        "size_in_bytes": 7153
      },
      {
        "_path": "Lib/site-packages/psycopg2/_psycopg.cp39-win_amd64.pyd",
        "path_type": "hardlink",
        "sha256": "140390b604169e67b709062bc7cad9140d0b5d1fa3fe3739b9a9cb2f791cc7ef",
        "sha256_in_prefix": "140390b604169e67b709062bc7cad9140d0b5d1fa3fe3739b9a9cb2f791cc7ef",
        "size_in_bytes": 271360
      },
      {
        "_path": "Lib/site-packages/psycopg2/_range.py",
        "path_type": "hardlink",
        "sha256": "efdc43ea2e7f6885584e3feaea5aea7d0133d34cb7575ea727991b49c2eacba5",
        "sha256_in_prefix": "efdc43ea2e7f6885584e3feaea5aea7d0133d34cb7575ea727991b49c2eacba5",
        "size_in_bytes": 17608
      },
      {
        "_path": "Lib/site-packages/psycopg2/errorcodes.py",
        "path_type": "hardlink",
        "sha256": "67981baba145e2702e70be1e5b13706bf5100bb16603e7f3d27aff2f2e0a4e80",
        "sha256_in_prefix": "67981baba145e2702e70be1e5b13706bf5100bb16603e7f3d27aff2f2e0a4e80",
        "size_in_bytes": 14277
      },
      {
        "_path": "Lib/site-packages/psycopg2/errors.py",
        "path_type": "hardlink",
        "sha256": "6804b8749c938356ec0f3243091400301fecef3bfe438c81e98be2876e88fb43",
        "sha256_in_prefix": "6804b8749c938356ec0f3243091400301fecef3bfe438c81e98be2876e88fb43",
        "size_in_bytes": 1425
      },
      {
        "_path": "Lib/site-packages/psycopg2/extensions.py",
        "path_type": "hardlink",
        "sha256": "086d241b9bcbf0eb79d375069435d724915d1562e0e07136fdcd7e94b38b73c3",
        "sha256_in_prefix": "086d241b9bcbf0eb79d375069435d724915d1562e0e07136fdcd7e94b38b73c3",
        "size_in_bytes": 6797
      },
      {
        "_path": "Lib/site-packages/psycopg2/extras.py",
        "path_type": "hardlink",
        "sha256": "5ce43a624c9a2deca9836fcf38f5edf1cfcc51bb92b6174c632c069fdacc35fa",
        "sha256_in_prefix": "5ce43a624c9a2deca9836fcf38f5edf1cfcc51bb92b6174c632c069fdacc35fa",
        "size_in_bytes": 42863
      },
      {
        "_path": "Lib/site-packages/psycopg2/pool.py",
        "path_type": "hardlink",
        "sha256": "50612df0874fdf135cd8f1983651b8b10be0f2785fe1a7829f3dfd8534741fc2",
        "sha256_in_prefix": "50612df0874fdf135cd8f1983651b8b10be0f2785fe1a7829f3dfd8534741fc2",
        "size_in_bytes": 6316
      },
      {
        "_path": "Lib/site-packages/psycopg2/sql.py",
        "path_type": "hardlink",
        "sha256": "39c144026a5ed9a31faf1d0c124e0bc74d17bd75c90a6be595a3956c963eca81",
        "sha256_in_prefix": "39c144026a5ed9a31faf1d0c124e0bc74d17bd75c90a6be595a3956c963eca81",
        "size_in_bytes": 14779
      },
      {
        "_path": "Lib/site-packages/psycopg2/tz.py",
        "path_type": "hardlink",
        "sha256": "afde642bb7864a9398aff96e0b262cce71ccce3979dac2e3b2748f5e45cbcd12",
        "sha256_in_prefix": "afde642bb7864a9398aff96e0b262cce71ccce3979dac2e3b2748f5e45cbcd12",
        "size_in_bytes": 4870
      }
    ],
    "paths_version": 1
  },
  "requested_spec": "None",
  "sha256": "3562db1d8f3d5e7a229dff24eb4e7c10e7797048dacd796cf79e4d9dbaae383b",
  "size": 175927,
  "subdir": "win-64",
  "timestamp": 1623910687382,
  "track_features": "",
  "url": "https://conda.anaconda.org/conda-forge/win-64/psycopg2-2.9.1-py39h0878f49_0.tar.bz2",
  "version": "2.9.1"
}